15:06:49.274 INFO [GridLauncherV3.launch] - Selenium build info: version: '3.14.0', revision: 'aacccce0'
15:06:49.274 INFO [GridLauncherV3$1.launch] - Launching a standalone Selenium Server on port 4444
2018-10-12 15:06:49.351:INFO::main: Logging initialized @299ms to org.seleniumhq.jetty9.util.log.StdErrLog
15:06:49.535 INFO [SeleniumServer.boot] - Selenium Server is up and running on port 4444
15:06:50.129 INFO [ActiveSessionFactory.apply] - Capabilities are: {
  "acceptSslCerts": true,
  "browserName": "firefox",
  "javascriptEnabled": true,
  "name": "Offer Creation"
}
15:06:50.130 INFO [ActiveSessionFactory.lambda$apply$11] - Matched factory org.openqa.selenium.remote.server.ServicedSession$Factory (provider: org.openqa.selenium.firefox.GeckoDriverService)
1539337010175	geckodriver	INFO	geckodriver 0.19.0
1539337010234	geckodriver	INFO	Listening on 127.0.0.1:13174
1539337010654	mozrunner::runner	INFO	Running command: "/Applications/Firefox.app/Contents/MacOS/firefox-bin" "-marionette" "-profile" "/var/folders/1j/km457b5x5vxdrnm3crl467xh0000gn/T/rust_mozprofile.yoa9dn2Eh0xE"
2018-10-12 15:06:52.005 plugin-container[4029:23698145] *** CFMessagePort: bootstrap_register(): failed 1100 (0x44c) 'Permission denied', port = 0x9837, name = 'com.apple.tsm.portname'
See /usr/include/servers/bootstrap_defs.h for the error codes.
2018-10-12 15:06:52.186 plugin-container[4030:23698185] *** CFMessagePort: bootstrap_register(): failed 1100 (0x44c) 'Permission denied', port = 0x9b3b, name = 'com.apple.tsm.portname'
See /usr/include/servers/bootstrap_defs.h for the error codes.
1539337012347	Marionette	INFO	Listening on port 59427
1539337012464	Marionette	DEBUG	[4294967297] Frame script loaded
1539337012468	Marionette	DEBUG	[4294967297] Frame script registered
15:06:52.487 INFO [ProtocolHandshake.createSession] - Detected dialect: W3C
15:06:52.554 INFO [RemoteSession$Factory.lambda$performHandshake$0] - Started new session 5e9740ab-e016-0c4f-85c1-4a704440d90c (org.openqa.selenium.firefox.GeckoDriverService)
1539337012629	Marionette	DEBUG	[4294967297] Received DOM event beforeunload for about:blank
2018-10-12 15:06:53.073 plugin-container[4034:23698342] *** CFMessagePort: bootstrap_register(): failed 1100 (0x44c) 'Permission denied', port = 0x953b, name = 'com.apple.tsm.portname'
See /usr/include/servers/bootstrap_defs.h for the error codes.
1539337013152	Marionette	DEBUG	[4294967297] Received DOM event pagehide for about:blank
1539337015301	Marionette	DEBUG	[4294967297] Received DOM event DOMContentLoaded for http://ec2-18-207-205-54.compute-1.amazonaws.com/#/
1539337016017	Marionette	DEBUG	[4294967297] Received DOM event pageshow for http://ec2-18-207-205-54.compute-1.amazonaws.com/#/
1539337017560	Marionette	DEBUG	[4294967297] Canceled page load listener because no navigation has been detected
1539337068526	Marionette	INFO	Stopped listening on port 59427
[GFX1-]: Receive IPC close with reason=AbnormalShutdown
15:07:48.693 INFO [ActiveSessions$1.onStop] - Removing session 5e9740ab-e016-0c4f-85c1-4a704440d90c (org.openqa.selenium.firefox.GeckoDriverService)
15:07:48.722 INFO [ActiveSessionFactory.apply] - Capabilities are: {
  "acceptSslCerts": true,
  "browserName": "firefox",
  "javascriptEnabled": true,
  "name": "Offer Creation"
}
15:07:48.722 INFO [ActiveSessionFactory.lambda$apply$11] - Matched factory org.openqa.selenium.remote.server.ServicedSession$Factory (provider: org.openqa.selenium.firefox.GeckoDriverService)
1539337068737	geckodriver	INFO	geckodriver 0.19.0
1539337068815	geckodriver	INFO	Listening on 127.0.0.1:20710
1539337068960	mozrunner::runner	INFO	Running command: "/Applications/Firefox.app/Contents/MacOS/firefox-bin" "-marionette" "-profile" "/var/folders/1j/km457b5x5vxdrnm3crl467xh0000gn/T/rust_mozprofile.T7ZnCRBEWgb1"
2018-10-12 15:07:50.177 plugin-container[4588:23701321] *** CFMessagePort: bootstrap_register(): failed 1100 (0x44c) 'Permission denied', port = 0xa037, name = 'com.apple.tsm.portname'
See /usr/include/servers/bootstrap_defs.h for the error codes.
2018-10-12 15:07:50.331 plugin-container[4589:23701368] *** CFMessagePort: bootstrap_register(): failed 1100 (0x44c) 'Permission denied', port = 0x9d37, name = 'com.apple.tsm.portname'
See /usr/include/servers/bootstrap_defs.h for the error codes.
1539337070510	Marionette	INFO	Listening on port 59793
1539337071007	Marionette	DEBUG	[4294967297] Frame script loaded
1539337071008	Marionette	DEBUG	[4294967297] Frame script registered
15:07:51.013 INFO [ProtocolHandshake.createSession] - Detected dialect: W3C
15:07:51.018 INFO [RemoteSession$Factory.lambda$performHandshake$0] - Started new session 0b1243f0-f3ce-0449-99c2-53f99ade7462 (org.openqa.selenium.firefox.GeckoDriverService)
1539337071035	Marionette	DEBUG	[4294967297] Received DOM event beforeunload for about:blank
2018-10-12 15:07:51.124 plugin-container[4594:23701641] *** CFMessagePort: bootstrap_register(): failed 1100 (0x44c) 'Permission denied', port = 0x9437, name = 'com.apple.tsm.portname'
See /usr/include/servers/bootstrap_defs.h for the error codes.
1539337071656	Marionette	DEBUG	[4294967297] Received DOM event pagehide for about:blank
1539337073786	Marionette	DEBUG	[4294967297] Received DOM event DOMContentLoaded for http://ec2-18-207-205-54.compute-1.amazonaws.com/#/
1539337074485	Marionette	DEBUG	[4294967297] Received DOM event pageshow for http://ec2-18-207-205-54.compute-1.amazonaws.com/#/
1539337075972	Marionette	DEBUG	[4294967297] Canceled page load listener because no navigation has been detected
1539337126519	Marionette	INFO	Stopped listening on port 59793
[GFX1-]: Receive IPC close with reason=AbnormalShutdown
[GFX1-]: Receive IPC close with reason=AbnormalShutdown
[GFX1-]: Receive IPC close with reason=AbnormalShutdown
15:08:46.628 INFO [ActiveSessions$1.onStop] - Removing session 0b1243f0-f3ce-0449-99c2-53f99ade7462 (org.openqa.selenium.firefox.GeckoDriverService)
